A global gap analysis for the eDNA Expeditions reference databases • ednagaps
…
generate_species_lists(reference_databases_taxa)

Then read the generated lists and add higher level taxonomic
groups:

reference_species <- read_reference_species()
reference_species
#> # A tibble: 114,579 × 11
#>    marker       phylum   class    order family genus species isMarine isBrackish
#>    <chr>        <chr>    <chr>    <chr> <chr>  <chr> <chr>      <dbl>      <dbl>
#>  1 12s_mimammal Chordata Teleost… Clup… Doros… Ambl… Amblyg…        1          1
#>  2 12s_mimammal Chordata Teleost… Clup… Dussu… Duss… Dussum…        1          0
#>  3 12s_mimammal Chordata Teleost… Clup… Prist… Opis… Opisth…        1          1
#>  4 12s_mimammal Chordata Teleost… Perc… Trigl… Chel… Chelid…        1          1
#>  5 12s_mimammal Chordata Elasmob… Squa… Squat… Squa… Squati…        1          1
#>  6 12s_mimammal Chordata Teleost… Perc… Cotti… Cott… Cottus…        1          1
#>  7 12s_mimammal Chordata Teleost… Perc… Cotti… Cott… Cottus…        0          0
#>  8 12s_mimammal Chordata Teleost… Silu… Silur… Kryp… Krypto…        0          0
#>  9 12s_mimammal Chordata Teleost… Char… Bryco… Bryc… Brycon…        0          0
#> 10 12s_mimammal Chordata Teleost… Char… Anost… Mega… Megale…        0          0
#> # ℹ 114,569 more rows
#> # ℹ 2 more variables: isFreshwater <dbl>, isTerrestrial <dbl>
…
dbClearResult(res)
dbDisconnect(con)

gridded_occurrences
#> # A tibble: 2,855,810 × 6
#>    phylum         class            order              species        h3    group
#>    <chr>          <chr>            <chr>              <chr>          <chr> <chr>
#>  1 Acanthocephala Eoacanthocephala Gyracanthocephala  Acanthogyrus … 8297… NA   
#>  2 Acanthocephala Eoacanthocephala Gyracanthocephala  Pallisentis (… 823d… NA   
#>  3 Acanthocephala Eoacanthocephala Neoechinorhynchida Atactorhynchu… 822b… NA   
#>  4 Acanthocephala Eoacanthocephala Neoechinorhynchida Atactorhynchu… 8244… NA   
#>  5 Acanthocephala Eoacanthocephala Neoechinorhynchida Atactorhynchu… 8244… NA   
#>  6 Acanthocephala Eoacanthocephala Neoechinorhynchida Atactorhynchu… 8244… NA   
#>  7 Acanthocephala Eoacanthocephala Neoechinorhynchida Atactorhynchu… 8244… NA   
#>  8 Acanthocephala Eoacanthocephala Neoechinorhynchida Atactorhynchu… 8244… NA   
#>  9 Acanthocephala Eoacanthocephala Neoechinorhynchida Atactorhynchu… 8244… NA   
#> 10 Acanthocephala Eoacanthocephala Neoechinorhynchida Atactorhynchu… 8245… NA   
#> # ℹ 2,855,800 more rows
…
